117981 702703
696505 204984
776848 297525
611741 6702
791759 142561
523033 387701
925890 736
711442 944583
147251 398530
129338 458850
265620 960247
471846 336164
290456 159665
961535 218325
53910 909712
263596 470034
257962 881202
212791 132959
541980 778128
863710 782737
245694 92364
79994 991051
719534 677471
272676 586725
501276 166788
748831 181447
875704 799189
711586 197852
26879 567207
191942 892116
212300 341496
260112 541855
545487 142145
906125 3659
46232 657419
616861 329951
228541 4409
789439 649503
339791 28969
917515 65517
419345 442307
934031 973728
935404 489921
205592 102546
214072 30166
221822 380058
664538 67242
702986 295309
436958 756852
601801 251613
293862 868061
805493 17690
706137 83839
996472 387541
553728 732542
626318 850928
801946 26528
998215 573307
298971 265485
798769 596614
305200 841047
899946 666956
252394 501621
748543 606622
277744 568234
384681 115606
891744 583395
386032 284185
224976 135820
20370 523429
959676 743412
382868 16789
138346 883569
845420 180590
706653 134363
714942 619621
965481 323009
342607 272501
902444 624699
297233 40766
851191 473913
304369 847592
643480 454313
430124 209247
201880 312808
142605 44857
854853 845385
797697 687786
670413 349631
470842 839300
82578 823867
924975 355167
690754 636324
229266 787048
978584 793579
299952 246499
914726 133973
933380 217960
899312 929598
490987 660371
754546 898827
912387 178054
108603 661138
421406 789834
438721 557533
438965 837601
828423 959211
76925 211610
561791 95439
116084 885169
170935 434156
706947 194005
484680 292151
982263 85691
679823 391173
743049 944472
151836 266185
406920 27062
716776 222334
515994 414693
553002 661706
381349 465971
93624 927624
25512 372691
669693 571958
47778 187868
934817 92847
203510 114096
218347 771174
487829 19288
767976 409406
539520 238585
654411 523220
437239 270839
583318 541427
244581 435368
665219 977785
934173 611557
414411 629983
465536 403608
760940 420631
864738 81454
188284 551942
813039 784743
669424 928510
453221 644799
724449 865188
488352 793984
403084 787195
628097 56136
196381 828827
774692 634123
840038 893907
366972 416200
455013 867443
249098 607943
850748 314109
227838 312
462502 959751
369325 462316
139904 156182
456729 790160
399050 598235
978249 99268
58943 399297
364274 67217
77135 580884
816900 942253
136251 382591
548476 508000
71916 96155
775400 34207
243132 839749
443904 928912
620193 305840
313587 865438
396390 377324
531720 209237
534127 820607
400657 141691
716731 569367
53332 196067
912422 525233
833430 977449
995710 599147
755289 466869
514990 845050
489303 313459
877978 620295
154734 173023
717768 807479
611705 715677
38428 556857
779127 63076
265920 459684
339920 311916
260362 841283
831297 592787
455755 768568
8980 489582
473941 184059
462602 671347
689295 634146
